indonesia_province_id,rajaongkir_province_id
51,1
19,2
36,3
17,4
34,5
31,6
75,7
15,8
32,9
33,10
35,11
61,12
63,13
62,14
64,15
65,16
21,17
18,18
81,19
82,20
11,21
52,22
53,23
94,24
91,25
14,26
76,27
73,28
72,29
74,30
71,31
13,32
16,33
12,34
